{
    "guid": "019c80c2-da33-4aaa-9187-c5f3aff7b379",
    "team1":{
        "players":[
            {
                "id":1,
                "position":{
                    "x":1.0000,
                    "y":1.0000
                }
            },
            {
                "id":2,
                "position":{
                    "x":1.0000,
                    "y":1.0000
                }
            }
        ]
    },
    "team2":{
        "players":[
            {
                "id":1,
                "position":{
                    "x":1.0000,
                    "y":1.0000
                }
            },
            {
                "id":2,
                "position":{
                    "x":1.0000,
                    "y":1.0000
                }
            }
        ]
    },
    "ball" :{
        "position":{
            "x":1.0000,
            "y":1.0000
        },
        "direction":{
            "x":1.0000,
            "y":1.0000
        },
        "speed": 0.0000
    }
}
