{
    "playerCountPerTeam": 6,
    "formations": [
        {
            "formationId":1,
            "spots": [
                {
                    "playerId": 1,
                    "position": {
                        "x": 5.000,
                        "y": 5.000
                    }
                },
                {
                    "playerId": 2,
                    "position": {
                        "x": 1.000,
                        "y": 1.000
                    }
                }
            ]   
        }
    ]
}